<svg xmlns="http://www.w3.org/2000/svg" viewBox="0 0 892 1009">
  <title>lines-bg</title>
  <g id="Layer_2" data-name="Layer 2">
    <g id="Layer_1-2" data-name="Layer 1">
      <rect id="_Slice_" data-name="&lt;Slice&gt;" width="892" height="1009" fill="none"/>
    </g>
  </g>
</svg>
