<svg xmlns="http://www.w3.org/2000/svg" viewBox="0 0 79 121.76">
  <title>scroll-down</title>
  <g id="Layer_2" data-name="Layer 2">
    <g id="Layer_1-2" data-name="Layer 1">
      <rect x="3.5" y="3.5" width="72" height="114.76" rx="36" fill="none" stroke="#231f20" stroke-miterlimit="10" stroke-width="7"/>
      <g>
        <circle cx="39.5" cy="46.03" r="5.38" fill="#231f20"/>
        <polyline points="29.11 70.96 39.5 81.11 49.89 70.96" fill="none" stroke="#231f20" stroke-linecap="round" stroke-linejoin="round" stroke-width="7"/>
      </g>
    </g>
  </g>
</svg>
