<svg xmlns="http://www.w3.org/2000/svg" xmlns:xlink="http://www.w3.org/1999/xlink">

    <g id="phone" viewBox="0 0 301.81 301.81">
        
        <g id="Layer_2" data-name="Layer 2">
            <g id="Layer_1-2" data-name="Layer 1">
            <path d="M261.17,179.07l-82.1,82.1a87.52,87.52,0,0,1-123.77,0L21.21,227.09,81.26,167l43.05,43.05,85.78-85.78L167,81.26l60.05-60L261.17,55.3A87.52,87.52,0,0,1,261.17,179.07Z" fill="none" stroke-miterlimit="10" stroke-width="30" />
            </g>
        </g>
    </g>

    <g id="email" viewBox="0 0 306.78 233.73">
        <g id="Layer_2" data-name="Layer 2">
            <g id="Layer_1-2" data-name="Layer 1">
            <path d="M232.47,218.73H74.31A59.31,59.31,0,0,1,15,159.42V15H291.78V159.42A59.31,59.31,0,0,1,232.47,218.73Z" fill="none" stroke-miterlimit="10" stroke-width="30" />
            <polyline points="60.93 67.44 153.39 131.86 245.85 67.44" fill="none" stroke-miterlimit="10" stroke-width="30" />
            </g>
        </g>
    </g>

   <g id="search" viewBox="0 0 18.01 18.01">
        <g id="Layer_2" data-name="Layer 2">
            <g id="Layer_1-2" data-name="Layer 1">
            <path d="M17.71,16.29l-3.4-3.39A7.91,7.91,0,0,0,16,8a8,8,0,1,0-8,8,7.91,7.91,0,0,0,4.9-1.69l3.39,3.4a1,1,0,0,0,1.41,0h0a1,1,0,0,0,0-1.41ZM2,8a6,6,0,1,1,6,6A6,6,0,0,1,2,8Z" fill="#fff"/>
            </g>
        </g>
    </g>

    <g id="arrow" viewBox="0 0 12.56 19.46">
        <defs>
            <clipPath id="clip-path">
            <rect width="12.56" height="19.47" fill="none"/>
            </clipPath>
        </defs>
        <g id="Layer_2" data-name="Layer 2">
            <g id="Layer_1-2" data-name="Layer 1">
            <g clip-path="url(#clip-path)">
                <polyline points="10.56 17.46 2.83 9.73 10.56 2" fill="none" stroke="" stroke-linecap="round" stroke-miterlimit="10" stroke-width="4"/>
            </g>
            </g>
        </g>
    </g>
    
    <g id="pc" viewBox="0 0 37.01 25.03">
        <g id="Layer_2" data-name="Layer 2">
            <g id="Layer_1-2" data-name="Layer 1">
            <path d="M9.86,0H.78C.26,0,0,.28,0,.83V24.19c0,.54.26.82.78.82H3.94c.52,0,.78-.28.78-.82V16.84q0-.42.45-.42H9.86a6,6,0,0,0,4.49-1.65A6.47,6.47,0,0,0,16,10.08V6.35a6.45,6.45,0,0,0-1.6-4.69A6,6,0,0,0,9.86,0m1.37,9.84a2.6,2.6,0,0,1-.48,1.73,2.18,2.18,0,0,1-1.68.52H5.13c-.27,0-.41-.14-.41-.43v-7A.37.37,0,0,1,5,4.25h4a2.26,2.26,0,0,1,1.68.52,2.62,2.62,0,0,1,.48,1.77ZM33.06,9h3.12c.55,0,.82-.29.82-.86V6.35a6.46,6.46,0,0,0-1.61-4.69A6.08,6.08,0,0,0,30.86,0H26.81a6,6,0,0,0-4.53,1.63,6.5,6.5,0,0,0-1.61,4.71V18.67a6.48,6.48,0,0,0,1.61,4.71A6,6,0,0,0,26.81,25h4.05a6,6,0,0,0,4.53-1.65A6.43,6.43,0,0,0,37,18.67V16.84a.74.74,0,0,0-.62-.84H33.06c-.52,0-.78.29-.78.85v1.6a2.49,2.49,0,0,1-.51,1.77,2.22,2.22,0,0,1-1.69.52H27.56a2.23,2.23,0,0,1-1.66-.52,2.53,2.53,0,0,1-.5-1.77V6.58a2.56,2.56,0,0,1,.5-1.77,2.27,2.27,0,0,1,1.66-.52h2.52a2.3,2.3,0,0,1,1.69.52,2.52,2.52,0,0,1,.51,1.77V8.17c0,.57.26.84.78.84" />
            </g>
        </g>
    </g>

</svg>