<svg id="Layer_1" data-name="Layer 1" xmlns="http://www.w3.org/2000/svg" viewBox="0 0 585.15 451.63">
  <title>ps4-color-overlay</title>
  <g id="PS4">
    <path id="path-1" d="M579.94,345.66c-11.43,14.42-39.43,24.71-39.43,24.71L332.19,445.19V390L485.5,335.38c17.4-6.23,20.07-15,5.93-19.67s-39.68-3.31-57.09,3l-102.15,36V297.37l5.89-2s29.52-10.45,71-15.05,92.34.63,132.23,15.75C586.3,310.29,591.36,331.24,579.94,345.66ZM352,251.69V110.57c0-16.57-3-31.83-18.59-36.15-11.91-3.82-19.3,7.24-19.3,23.8V451.63L218.8,421.38V0c40.53,7.52,99.57,25.31,131.3,36,80.72,27.71,108.09,62.2,108.09,139.91C458.19,251.66,411.43,280.37,352,251.69ZM43.92,384.24c-46.16-13-53.84-40.08-32.8-55.69,19.44-14.41,52.51-25.25,52.51-25.25l136.66-48.59V310.1L102,345.3c-17.37,6.23-20,15.06-5.93,19.68s39.7,3.31,57.1-2.94l47.17-17.11v49.56c-3,.53-6.33,1.06-9.41,1.58A309.28,309.28,0,0,1,43.92,384.24Z" transform="translate(0)" fill="#dddeed"/>
  </g>
</svg>
