<svg xmlns="http://www.w3.org/2000/svg" xmlns:xlink="http://www.w3.org/1999/xlink" viewBox="0 0 303.5 191">
  <defs>
    <linearGradient id="linear-gradient" x1="67.39" y1="-23.97" x2="334.55" y2="146.76" gradientUnits="userSpaceOnUse">
      <stop offset="0" stop-color="#6197fd"/>
      <stop offset="1" stop-color="#5c46fe"/>
    </linearGradient>
    <linearGradient id="linear-gradient-2" x1="-13.8" y1="120.99" x2="142.2" y2="202.99" gradientUnits="userSpaceOnUse">
      <stop offset="0" stop-color="#5b3dfe"/>
      <stop offset="1" stop-color="#d641f9"/>
    </linearGradient>
    <linearGradient id="linear-gradient-3" x1="180.64" y1="-8.83" x2="328.15" y2="85.45" gradientUnits="userSpaceOnUse">
      <stop offset="0" stop-color="#47aefb"/>
      <stop offset="1" stop-color="#5658fd"/>
    </linearGradient>
  </defs>
  <title>gift-card-bg-1</title>
  <g id="Layer_2" data-name="Layer 2">
    <g id="Layer_2-2" data-name="Layer 2">
      <g>
        <rect width="303.5" height="191" fill="#5b3dfe"/>
        <path d="M303.5,0H60.79C53.32,14.11,33.59,55.38,43,81.58c11.5,32,71,9.5,108.75,7.5s82.75-9.5,78.75,30.5C226.72,157.42,208.62,168,214.71,191H303.5V124" fill="url(#linear-gradient)"/>
        <path d="M149.47,191H0V118.3c4.32-4.81,10-8.87,16.5-8.22,15,1.5,11.5,27,16.5,37s3,20.5,40.5,7.5,59.5-40.5,72.5,1.5C150.49,170.6,150.89,182.13,149.47,191Z" fill="url(#linear-gradient-2)"/>
        <path d="M303.5,0H175s-26.33,41,0,57.25c20,12.33,57.67-14,96.67-5.34C313.42,61.19,286,89.25,284,108.25c-1.65,15.67,9.4,23.86,19.5,15.77Z" fill="url(#linear-gradient-3)"/>
      </g>
    </g>
  </g>
</svg>
