<svg xmlns="http://www.w3.org/2000/svg" viewBox="0 0 431.64 579.88">
  <title>origin-color</title>
  <g id="Layer_2" data-name="Layer 2">
    <g id="Origin">
      <g id="_f15a23ff" data-name="#f15a23ff">
        <path d="M206.18.78c3.18-1.77,7.9-.45,9,3.22,1.18,3-.86,5.82-2.53,8.17a143,143,0,0,0-23.42,56.48c-2.25,1-2.91,3.32-2.2,5.55,1.1.4,2.22.76,3.35,1.1,23-2,46.31-1.59,68.94,3.24a215.9,215.9,0,0,1,153.34,300,448.48,448.48,0,0,1-187,200.49c-2.62,1.21-6.4,1.26-8.19-1.34-2.12-2.74-1.25-6.62.84-9.11a141.79,141.79,0,0,0,22.77-51.19c.8-3.8,1.89-7.65,1.56-11.56-1.34-1.75-3.55-1.22-5.43-1.16A215.6,215.6,0,0,1,29.58,399.22,213.57,213.57,0,0,1,0,287.4C.17,251.56,10,216,27.17,184.64c40.08-77,103-141.91,179-183.86M204,206.44A84.67,84.67,0,0,0,145.74,243c-8.89,13.48-14.28,29.49-14.17,45.7a82.94,82.94,0,0,0,23,59.13,84.27,84.27,0,0,0,141.85-33.3c10.71-33-2.13-71.63-30.07-92A84.07,84.07,0,0,0,204,206.44Z" fill="#f15a23"/>
      </g>
    </g>
  </g>
</svg>
