<svg xmlns="http://www.w3.org/2000/svg" viewBox="0 0 22.62 22.62">
  <title>square</title>
  <g id="Layer_2" data-name="Layer 2">
    <g id="BACKGROUND">
      <path d="M9.39,22.62,0,9.39,13.23,0l9.39,13.23ZM4.72,10.19l5.47,7.71,7.71-5.47L12.43,4.72Z" fill="#fff"/>
    </g>
  </g>
</svg>
