<svg id="Layer_1" data-name="Layer 1" xmlns="http://www.w3.org/2000/svg" viewBox="0 0 258.05 456">
  <title>netflix-solid</title>
  <g id="_227-netflix" data-name="227-netflix">
    <g>
      <polygon points="172.03 226 172.03 0 258.05 0 258.05 449 84.79 0 86.01 0 172.03 226" fill="#c50a14"/>
      <polygon points="86.01 227.26 86.01 456 0 456 0 10.41 86.01 227.26" fill="#c50a14"/>
      <polygon points="258.05 449 258.05 456 176.74 456 94.32 248.2 86.01 225.99 86.01 227.26 0 10.41 0 0 84.79 0 258.05 449" fill="#c50a14"/>
    </g>
  </g>
</svg>
