<svg id="Layer_1" data-name="Layer 1" xmlns="http://www.w3.org/2000/svg" viewBox="0 0 75.29 75.29">
  <title>x</title>
  <g>
    <line x1="4.95" y1="4.95" x2="70.34" y2="70.34" fill="none" stroke="#fff" stroke-miterlimit="10" stroke-width="14"/>
    <line x1="70.34" y1="4.95" x2="4.95" y2="70.34" fill="none" stroke="#fff" stroke-miterlimit="10" stroke-width="14"/>
  </g>
</svg>
