<svg xmlns="http://www.w3.org/2000/svg" viewBox="0 0 12.56 19.47">
  <title>arrow-right</title>
  <g id="Layer_2" data-name="Layer 2">
    <g id="Layer_1-2" data-name="Layer 1">
      <polyline points="10.56 17.46 2.83 9.73 10.56 2" fill="none" stroke="#000" stroke-linecap="round" stroke-miterlimit="10" stroke-width="4"/>
    </g>
  </g>
</svg>
