<svg id="svg2" xmlns="http://www.w3.org/2000/svg" viewBox="0 0 400 58.21">
  <title>bethesda-white</title>
  <path id="path4" d="M0,0V24.94H24.44V0ZM15.83,16.15H8.61V8.79h7.22ZM51.67,32.93h11c4.16,0,6.16,1.83,6.16,5.2,0,4.4-3.2,5.44-6.88,5.44H51.67ZM34.08,57.16H66.47c10.08,0,20-5.92,20-17.35,0-8.4-4.8-12.48-9.91-14.24,4.24-2.31,7-5.44,7-11.19S80.39.06,65.35.06H34.08ZM51.67,13.65H61c3.6,0,6,1,6,3.92,0,3.68-2.32,4.72-6,4.72H51.67Zm51.65,18.08c.72-4.48,3.44-7,8.16-7a6.81,6.81,0,0,1,7,7ZM133.63,40c0-16.15-7.12-25.35-23.59-25.35-13.13,0-21.92,9.84-21.92,21.92,0,13.83,10,21.67,23.28,21.67,9.43,0,18.15-4.16,21.35-13.12H118c-1.29,2-4.09,3-6.65,3-5,0-7.67-3.37-8.07-8.08ZM153.48,3H137.64V15.66h-7v9.75h7V45.25c0,11.35,7.44,12.39,14.16,12.39,3.35,0,7-.48,10.16-.48v-12a25.75,25.75,0,0,1-3.61.24c-4,0-4.88-1.68-4.88-5.51V25.41H162V15.66h-8.48V3Zm11.1,54.14h15.84V35.25c0-6.64,3.6-8,6.32-8,4.63,0,5.19,3.37,5.19,8.16V57.16h15.84V28.68c0-9.51-6.8-14.07-14.24-14.07-6.71,0-10.24,2.33-13,5.52h-.16V.06H164.58v57.1ZM225,31.73c.72-4.48,3.44-7,8.16-7a6.81,6.81,0,0,1,6.95,7ZM255.33,40c0-16.15-7.11-25.35-23.59-25.35-13.12,0-21.92,9.84-21.92,21.92,0,13.83,10,21.67,23.29,21.67,9.42,0,18.15-4.92,21.34-13.88H239.66A8.57,8.57,0,0,1,233,48c-5,0-7.68-3.37-8.07-8.08Zm39.84-12.23C294.78,17.1,284,14.62,275,14.62c-8.32,0-19.6,2.72-19.6,13.19,0,7.12,4.88,11,17,13,7.36,1.28,8.72,2,8.72,4.4s-3.28,3.2-5.36,3.2a6.62,6.62,0,0,1-4.24-1.2c-1.2-1-1.83-1.48-1.91-2.92H254.48c.23,10.72,11,13.88,20.7,13.88,10.08,0,21.12-3.13,21.12-14.64,0-6.81-4.64-9.92-9.92-11.6s-11.27-2.08-13.91-3.21c-.87-.39-1.83-1-1.83-2.15,0-2.72,2.55-3.2,4.79-3.2a5.5,5.5,0,0,1,3.52,1.2,4,4,0,0,1,1.84,3.12h14.38ZM341.87.06H326V20.21h-.16a13.55,13.55,0,0,0-11.36-5.59c-13.92,0-17.67,11.83-17.67,21.59,0,10.4,5.67,22,17.43,22,7.76,0,10.15-3,12.16-5.61h.16v4.56h15.28V.07ZM326.6,36.37c0,5-1.28,10.31-7,10.31s-7-5.36-7-10.31,1.28-10.24,7-10.24,7,5.36,7,10.24m45.16,6c-.24,4.31-3,6.47-6.64,6.47-2.87,0-5-1.92-5-3.83,0-2.81,1.84-3.69,5.36-4.48a27.42,27.42,0,0,0,6.24-2v3.84ZM387,30.85c0-8,.15-16.24-19.69-16.24-9.83,0-20.86,1.92-21.34,13.6h14.7c.09-1.76,1.06-4.24,5.93-4.24,2.57,0,5.2,1,5.2,3.84s-2.17,3.28-4.32,3.68C359.36,33,344,32.53,344,45.65c0,8.72,6.63,12.56,14.64,12.56,5.12,0,10-1.13,13.35-5h.16a11,11,0,0,0,.56,3.92h16.16C387.12,54.53,387,51,387,47.88v-17Zm4.62-8.74h-1.2v-4.9h-1.84v-1h4.83v1h-1.78v4.9Zm3.63,0h-1.13V16.17H396l1.07,4.1,1.08-4.1H400v5.94h-1.15V17.38l-1.29,4.73h-1.08l-1.27-4.73v4.73Z" transform="translate(0 0)" fill="#fff"/>
</svg>
