<svg xmlns="http://www.w3.org/2000/svg" viewBox="0 0 626.23 572.25">
  <title>cta-v2</title>
  <g id="Layer_2" data-name="Layer 2">
    <g id="Isolation_Mode" data-name="Isolation Mode">
      <circle cx="286.12" cy="286.12" r="83" fill="#222747" opacity="0"/>
      <circle cx="286.12" cy="286.12" r="120.5" fill="none" stroke="#959aba" stroke-miterlimit="10" stroke-width="30" opacity="0.4"/>
      <circle cx="286.12" cy="286.12" r="180.75" fill="none" stroke="#959aba" stroke-miterlimit="10" stroke-width="30" opacity="0.2"/>
      <circle cx="286.12" cy="286.12" r="271.12" fill="none" stroke="#959aba" stroke-miterlimit="10" stroke-width="30" opacity="0.05"/>
      <g>
        <path d="M358.29,479.39A28.49,28.49,0,0,1,332.4,462l-20.14-51.55-23.54,20.85a16.76,16.76,0,0,1-11.18,4.31,17.07,17.07,0,0,1-12.07-5,16.73,16.73,0,0,1-4.85-11.81l-5.06-171.08L392.37,353.92a16.86,16.86,0,0,1-7,30l-32,6.65,28.51,47.79a27.48,27.48,0,0,1-13.13,38.91A26.51,26.51,0,0,1,358.29,479.39Z" fill="#3f4373"/>
        <path d="M265.65,267.52l121,93.94a7.21,7.21,0,0,1,2.91,5.3,7.32,7.32,0,0,1-6,7.82L338.39,384,373.65,443a18,18,0,0,1-8.6,25.47,17.21,17.21,0,0,1-6.76,1.38,18.83,18.83,0,0,1-17.13-11.59l-25-64-33.74,29.88a7.25,7.25,0,0,1-4.88,1.92,7.39,7.39,0,0,1-7.41-7.49l-4.48-151.08m-20.18-39.74,1.19,40.3,4.47,150.81a26.16,26.16,0,0,0,7.58,18.33,26.67,26.67,0,0,0,18.83,7.87,26.29,26.29,0,0,0,17.51-6.73l13.32-11.79,15.1,38.65.08.21.09.22a37.58,37.58,0,0,0,34.65,23.24A35.89,35.89,0,0,0,372.53,486a37,37,0,0,0,17.62-52.34l-.09-.16-.1-.16-21.58-36.17,18.9-3.93a26.36,26.36,0,0,0,10.88-46.82L277.31,252.51l-31.84-24.73Z" fill="#fff"/>
      </g>
      <circle cx="55.33" cy="369.12" r="21.91" fill="#f3303a"/>
      <circle cx="335.36" cy="173.66" r="37.94" fill="#f3303a"/>
      <circle cx="557.25" cy="358.76" r="51.79" fill="#e4e6f8" opacity="0.8"/>
      <polygon points="213.65 78.25 265.65 236.25 241.65 246.25 143.21 114.3 213.65 78.25" fill="#fff"/>
      <polygon points="222.84 266.53 225.85 296.89 55.33 327.25 60.86 276.61 222.84 266.53" fill="#fff"/>
      <polygon points="366.79 266.53 618.15 229.26 626.23 303.8 369.95 293.1 366.79 266.53" fill="#fff"/>
    </g>
  </g>
</svg>
