<svg xmlns="http://www.w3.org/2000/svg" xmlns:xlink="http://www.w3.org/1999/xlink" viewBox="0 0 1647.22 407.8">
  <defs>
    <linearGradient id="linear-gradient" x1="1459.58" y1="188.78" x2="1600.34" y2="361.53" gradientUnits="userSpaceOnUse">
      <stop offset="0" stop-color="#f33"/>
      <stop offset="0.13" stop-color="#f33"/>
      <stop offset="1" stop-color="#f33"/>
    </linearGradient>
    <linearGradient id="linear-gradient-2" x1="1561.91" y1="282.93" x2="1392.36" y2="55.8" xlink:href="#linear-gradient"/>
  </defs>
  <title>Asset 2</title>
  <g id="Layer_2" data-name="Layer 2">
    <g id="Layer_1-2" data-name="Layer 1">
      <g>
        <path d="M1633.23,249.13c-32.56-36.41-70.38-68.88-98.34-84.37-11.48-6.36-33.23-.07-24.26,9.51,34.58,36.95,69.35,82,69.66,110.72-.31,28.69-35.08,73.78-69.66,110.73-9,9.57,12.78,15.86,24.26,9.51,28-15.49,65.78-48,98.34-84.37a53,53,0,0,0,0-71.73Z" fill="url(#linear-gradient)"/>
        <path d="M1349.77,221.29c45.41,50.79,98.15,96.08,137.15,117.68,16,8.87,46.34.09,33.84-13.26-48.24-51.54-96.73-114.43-97.16-154.43.43-40,48.92-102.9,97.16-154.44,12.5-13.35-17.83-22.12-33.84-13.25-39,21.59-91.74,66.89-137.15,117.67a73.86,73.86,0,0,0,0,100Z" fill="url(#linear-gradient-2)"/>
        <g>
          <path d="M1127.07,108.13a22.72,22.72,0,0,0-22.72,22.72V298.44a22.72,22.72,0,1,0,45.44,0V130.85A22.72,22.72,0,0,0,1127.07,108.13Z" fill="#222747"/>
          <path d="M551,158.12a22.66,22.66,0,0,0,16.06-6.65L616.53,102c.33-.33.65-.68,1-1v0l15.84-17.44a6.82,6.82,0,0,0-2.72-11l-21.85-7.72c-.48-.18-.95-.35-1.43-.5l-.21-.08h0a22.71,22.71,0,0,0-22.74,5.66L535,119.33A22.72,22.72,0,0,0,551,158.12Z" fill="#222747"/>
          <path d="M1050.83,148.21a6.89,6.89,0,0,0,6.36-9.54L1048,116.72c-.09-.25-.2-.49-.3-.73l-.21-.49h0a22.54,22.54,0,0,0-20.5-12.89h-13.82a88.48,88.48,0,0,0-51.49,16.11,90.47,90.47,0,0,0-36.43,89.14,88.42,88.42,0,0,0,25.45,47.57l20.37,20h-136a64.71,64.71,0,0,1-64.61-64.5,63.7,63.7,0,0,1,19-45.34,65.22,65.22,0,0,1,46.41-19.4h35.3a6.88,6.88,0,0,0,6.35-9.53L868.87,116a22.52,22.52,0,0,0-21.42-15.2h-11.6a110.36,110.36,0,0,0-78.58,32.74A109.82,109.82,0,0,0,835.1,320.88h215.3a6.89,6.89,0,0,0,6.35-9.54l-8.57-20.57a22.66,22.66,0,0,0-5.58-8.83l-60-58.93c-14-13.74-17.26-33.13-8.33-51.14a43.4,43.4,0,0,1,39-23.81h14.17l-.1.16Z" fill="#222747"/>
          <path d="M1214.48,72.93l-8.59-20.61a22.8,22.8,0,0,0-1-2.44l0-.13h0a22.71,22.71,0,0,0-20.36-12.64H1078.78a22.73,22.73,0,0,0,0,45.45h105.67c.71,0,1.41,0,2.11-.1h21.57A6.89,6.89,0,0,0,1214.48,72.93Z" fill="#222747"/>
          <path d="M423.74,371.88a22.71,22.71,0,0,0-21.54-15.5H323.81a22.73,22.73,0,1,0,0,45.45H425.9a6.88,6.88,0,0,0,6.35-9.54Z" fill="#222747"/>
          <path d="M721.06,290.74a21.78,21.78,0,0,0-1-2.51l0-.07a22.64,22.64,0,0,0-4.33-6.07l-93-93,87-87a22.34,22.34,0,0,0,2.22-2.57l14.42-15.88a6.82,6.82,0,0,0-2.71-11l-20.77-7.33a22.73,22.73,0,0,0-25.29,4.7L574.45,173a22.74,22.74,0,0,0,0,32.14l70.28,70.28H508.29a83.46,83.46,0,0,1-83.37-83.37V168.45a6.88,6.88,0,0,0-9.53-6.35l-19.54,8.15a22.72,22.72,0,0,0-16.37,21.81v83.09h-31a62.21,62.21,0,0,1-61.87-56.63c0-1.83-.12-3.66-.26-5.47v0a22.74,22.74,0,0,0-.44-4.47,100.68,100.68,0,0,0-99.25-88.47h-48.1A138.51,138.51,0,0,0,0,258.58V299c0,.07,0,.15,0,.23V322.8a6.88,6.88,0,0,0,9.53,6.36l23.18-9.67-.07,0A22.71,22.71,0,0,0,45.45,299V258.58a93.18,93.18,0,0,1,50.62-82.82,100.52,100.52,0,0,0,169.72,106,107.39,107.39,0,0,0,82.65,38.8H402.2a22.72,22.72,0,0,0,22.72-22.72v-7.6a127.85,127.85,0,0,0,83.37,30.61h215a6.89,6.89,0,0,0,6.35-9.54Zm-535-15a55.1,55.1,0,1,1,54.85-60.32c0,1.8.12,3.58.25,5.36A55.17,55.17,0,0,1,186.05,275.71Z" fill="#222747"/>
        </g>
      </g>
    </g>
  </g>
</svg>
