<svg id="Layer_1" data-name="Layer 1" xmlns="http://www.w3.org/2000/svg" viewBox="0 0 511.45 512">
  <title>steam-color-overlay</title>
  <g id="Steam">
    <g>
      <path d="M159.07,392.06,127.41,379a54.8,54.8,0,1,0,30-75l32.72,13.56a40.37,40.37,0,0,1-31,74.55Z" fill="#dddeed"/>
      <path d="M404.3,191.88a64.79,64.79,0,1,0-64.8,64.91A64.79,64.79,0,0,0,404.3,191.88ZM291,191.79a48.67,48.67,0,1,1,48.65,48.74A48.67,48.67,0,0,1,291,191.79Z" fill="#dddeed"/>
      <path d="M255.45,0C119.78,0,8.77,105.54,0,239l.11.18h0L137.67,295.8a68.75,68.75,0,0,1,12-6.33,70.21,70.21,0,0,1,30-5.29l62.65-91v-1.27a97.24,97.24,0,0,1,194.47-2c0,.66,0,1.31,0,2,0,53.7-43.6,97.43-97.24,97.43h-2.2l-89.63,64.05a71,71,0,0,1-140.24,17.34l-96.9-40C42.48,435.64,140,512,255.45,512c141.38,0,256-114.62,256-256S396.83,0,255.45,0Z" fill="#dddeed"/>
    </g>
  </g>
</svg>
