<svg xmlns="http://www.w3.org/2000/svg" xmlns:xlink="http://www.w3.org/1999/xlink" viewBox="0 0 150 150">
  <defs>
    <radialGradient id="radial-gradient" cx="-223.39" cy="73.69" fx="-269.27172564180324" r="79.08" gradientTransform="translate(277.6 173.81) rotate(45)" gradientUnits="userSpaceOnUse">
      <stop offset="0.09" stop-color="#00aeff"/>
      <stop offset="0.12" stop-color="#06a7fd"/>
      <stop offset="0.32" stop-color="#376eea"/>
      <stop offset="0.49" stop-color="#5c45dc"/>
      <stop offset="0.63" stop-color="#722bd4"/>
      <stop offset="0.71" stop-color="#7a22d1"/>
      <stop offset="0.75" stop-color="#7e22cc"/>
      <stop offset="0.8" stop-color="#8824bf"/>
      <stop offset="0.85" stop-color="#9a26a9"/>
      <stop offset="0.9" stop-color="#b3298a"/>
      <stop offset="0.95" stop-color="#d32c62"/>
      <stop offset="1" stop-color="#f3303a"/>
    </radialGradient>
  </defs>
  <title>circle</title>
  <g id="Layer_2" data-name="Layer 2">
    <g id="Layer_1-2" data-name="Layer 1">
      <circle cx="75" cy="75" r="75" fill="url(#radial-gradient)"/>
    </g>
  </g>
</svg>
