<svg xmlns="http://www.w3.org/2000/svg" viewBox="0 0 14.6 14.6">
  <title>cross</title>
  <g id="Layer_2" data-name="Layer 2">
    <g id="BACKGROUND">
      <polygon points="2.35 0.15 0 2.58 4.91 7.34 0.15 12.24 2.58 14.6 7.34 9.69 12.25 14.45 14.6 12.02 9.69 7.26 14.45 2.35 12.02 0 7.26 4.91 2.35 0.15" fill="#fff"/>
    </g>
  </g>
</svg>
