<svg xmlns="http://www.w3.org/2000/svg" xmlns:xlink="http://www.w3.org/1999/xlink" viewBox="0 0 303.5 191">
  <defs>
    <linearGradient id="linear-gradient" x1="264.9" y1="63.98" x2="62.9" y2="178.98" gradientUnits="userSpaceOnUse">
      <stop offset="0" stop-color="#fd9957"/>
      <stop offset="1" stop-color="#fe7d56"/>
    </linearGradient>
    <linearGradient id="linear-gradient-2" x1="320.24" y1="67.73" x2="143.24" y2="233.73" gradientUnits="userSpaceOnUse">
      <stop offset="0" stop-color="#fd9957"/>
      <stop offset="1" stop-color="#ff6186"/>
    </linearGradient>
  </defs>
  <title>gift-card-bg-2</title>
  <g id="Layer_2" data-name="Layer 2">
    <g id="Layer_2-2" data-name="Layer 2">
      <rect width="303.5" height="191" fill="#fc6a57"/>
      <polygon points="250.85 43.32 303.5 24.06 303.5 46.19 175.75 191 105.43 191 88.41 179.04 17 128.85 250.85 43.32" fill="url(#linear-gradient)"/>
      <polygon points="303.5 0 303.5 191 74.1 191 88.41 179.04 250.85 43.32 302.68 0 303.5 0" fill="url(#linear-gradient-2)"/>
    </g>
  </g>
</svg>
