<svg id="Layer_1" data-name="Layer 1" xmlns="http://www.w3.org/2000/svg" viewBox="0 0 565.28 566.27">
  <title>xbox-color</title>
  <g id="Xbox">
    <path d="M126.75,48c-1,0-1,1,0,0a22,22,0,0,1,5.11-4c43.95-28.67,95.06-44,152.3-44C337.31,0,387.4,14.31,429.31,39.86c3.06,2,11.24,7.16,15.33,13.29-40.89-45-161.5,52.13-161.5,52.13C241.23,73.6,203.41,51.11,174.79,44,150.26,36.8,133.9,41.91,126.75,48ZM490.63,91l-4.08-4.09A41.08,41.08,0,0,0,451.79,73.6c-10.22,3.06-58.26,20.4-118.57,76.66,0,0,66.44,65.41,108.35,131.85,40.89,66.45,65.42,118.58,50.09,191.15,46-50.09,73.59-116.53,73.59-190.12A274,274,0,0,0,490.63,91ZM388.42,310.74c-18.4-20.45-45-50.09-80.75-84.84-8.18-8.18-16.36-15.34-24.53-24.54,0,0-13.29,13.29-29.65,30.67-21.46,21.46-50.08,50.09-65.41,67.46C160.48,329.13,80.75,422.15,75.64,474.28c0,0-17.38-41.91,21.46-137C122.66,275,199.32,180.92,231,150.26c0,0-29.65-32.71-66.44-54.18l-1-1c-17.37-10.22-36.79-18.4-55.19-19.42C88.93,76.66,77.68,91,77.68,91,29.64,140,0,208.52,0,283.14,0,439.53,126.75,566.27,283.14,566.27c82.79,0,157.41-35.77,209.54-92,0,0-6.13-37.82-43.95-91C439.53,370,406.82,331.18,388.42,310.74Z" fill="#43d481"/>
  </g>
</svg>
