<svg width="0" height="0" class="hidden">
  <symbol xmlns="http://www.w3.org/2000/svg" viewBox="0 0 75.29 75.29" id="x">
    <title>x</title>
    <path d="M4.95 4.95l65.39 65.39m0-65.39L4.95 70.34" fill="none" stroke-miterlimit="10" stroke-width="14"></path>
  </symbol>
  <symbol xmlns="http://www.w3.org/2000/svg" viewBox="0 0 511.45 512" id="steam-color-overlay">
    <title>steam-color-overlay</title>
    <g fill="#dddeed">
      <path d="M159.07 392.06L127.41 379a54.8 54.8 0 1 0 30-75l32.72 13.56a40.37 40.37 0 0 1-31 74.55zM404.3 191.88a64.79 64.79 0 1 0-64.8 64.91 64.79 64.79 0 0 0 64.8-64.91zm-113.3-.09a48.67 48.67 0 1 1 48.65 48.74A48.67 48.67 0 0 1 291 191.79z"></path>
      <path d="M255.45 0C119.78 0 8.77 105.54 0 239l.11.18 137.56 56.62a68.75 68.75 0 0 1 12-6.33 70.21 70.21 0 0 1 30-5.29l62.65-91v-1.27a97.24 97.24 0 0 1 194.47-2v2c0 53.7-43.6 97.43-97.24 97.43h-2.2l-89.63 64.05a71 71 0 0 1-140.24 17.34l-96.9-40C42.48 435.64 140 512 255.45 512c141.38 0 256-114.62 256-256S396.83 0 255.45 0z"></path>
    </g>
  </symbol>
  <symbol xmlns="http://www.w3.org/2000/svg" viewBox="0 0 565.28 566.27" id="xbox-color-overlay">
    <title>xbox-color-overlay</title>
    <path d="M126.75 48c-1 0-1 1 0 0a22 22 0 0 1 5.11-4c43.95-28.67 95.06-44 152.3-44 53.15 0 103.24 14.31 145.15 39.86 3.06 2 11.24 7.16 15.33 13.29-40.89-45-161.5 52.13-161.5 52.13C241.23 73.6 203.41 51.11 174.79 44c-24.53-7.2-40.89-2.09-48.04 4zm363.88 43l-4.08-4.09a41.08 41.08 0 0 0-34.76-13.31c-10.22 3.06-58.26 20.4-118.57 76.66 0 0 66.44 65.41 108.35 131.85 40.89 66.45 65.42 118.58 50.09 191.15 46-50.09 73.59-116.53 73.59-190.12A274 274 0 0 0 490.63 91zM388.42 310.74c-18.4-20.45-45-50.09-80.75-84.84-8.18-8.18-16.36-15.34-24.53-24.54 0 0-13.29 13.29-29.65 30.67-21.46 21.46-50.08 50.09-65.41 67.46-27.6 29.64-107.33 122.66-112.44 174.79 0 0-17.38-41.91 21.46-137C122.66 275 199.32 180.92 231 150.26c0 0-29.65-32.71-66.44-54.18l-1-1c-17.37-10.22-36.79-18.4-55.19-19.42C88.93 76.66 77.68 91 77.68 91 29.64 140 0 208.52 0 283.14c0 156.39 126.75 283.13 283.14 283.13 82.79 0 157.41-35.77 209.54-92 0 0-6.13-37.82-43.95-91-9.2-13.27-41.91-52.09-60.31-72.53z"
          fill="#dddeed"></path>
  </symbol>
  <symbol xmlns="http://www.w3.org/2000/svg" viewBox="0 0 585.15 451.63" id="ps4-color-overlay">
    <title>ps4-color-overlay</title>
    <path d="M579.94 345.66c-11.43 14.42-39.43 24.71-39.43 24.71l-208.32 74.82V390l153.31-54.62c17.4-6.23 20.07-15 5.93-19.67s-39.68-3.31-57.09 3l-102.15 36v-57.34l5.89-2s29.52-10.45 71-15.05 92.34.63 132.23 15.75c44.99 14.22 50.05 35.17 38.63 49.59zM352 251.69V110.57c0-16.57-3-31.83-18.59-36.15-11.91-3.82-19.3 7.24-19.3 23.8v353.41l-95.31-30.25V0c40.53 7.52 99.57 25.31 131.3 36 80.72 27.71 108.09 62.2 108.09 139.91 0 75.75-46.76 104.46-106.19 75.78zM43.92 384.24c-46.16-13-53.84-40.08-32.8-55.69 19.44-14.41 52.51-25.25 52.51-25.25l136.66-48.59v55.39L102 345.3c-17.37 6.23-20 15.06-5.93 19.68s39.7 3.31 57.1-2.94l47.17-17.11v49.56c-3 .53-6.33 1.06-9.41 1.58a309.28 309.28 0 0 1-147.01-11.83z"
          fill="#dddeed"></path>
  </symbol>
  <symbol xmlns="http://www.w3.org/2000/svg" viewBox="0 0 512 512" id="spotify-color-overlay">
    <title>spotify-color-overlay</title>
    <path d="M256 512c141.31 0 256-114.69 256-256S397.31 0 256 0 0 114.69 0 256s114.69 256 256 256zm103.94-135.34c-17.22 0-71.6-60.33-224.43-29-4 1-9.3 2.69-12.29 2.69-19.52 0-23.25-29.21-2.26-33.67 84.54-18.66 170.94-17 244.63 27.05 17.58 11.23 10.11 32.92-5.65 32.92zM387.73 309c-2.41-.64-1.7 1.47-12.73-4.33-64.54-38.19-160.71-53.59-246.3-30.36-4.95 1.35-7.63 2.69-12.28 2.69-22.85 0-28.91-34.37-4-41.39 100.58-28.29 208.52-11.8 283.65 32.89 8.37 4.95 11.67 11.37 11.67 20.33A20 20 0 0 1 387.73 309zM97 149.29C193.51 121.05 339.54 130 430.34 183c23.27 13.42 14.12 47.36-10.63 47.36-5.38 0-8.68-1.34-13.33-4-73.45-43.86-204.89-54.38-289.92-30.63-3.74 1-8.39 2.66-13.34 2.66-13.63 0-24-10.64-24-24.36 0-14 8.68-22 18-24.64z"
          fill="#dddeed"></path>
  </symbol>
  <symbol xmlns="http://www.w3.org/2000/svg" viewBox="0 0 14.6 14.6" id="cross">
    <title>cross</title>
    <path fill="#fff" d="M2.35.15L0 2.58l4.91 4.76-4.76 4.9 2.43 2.36 4.76-4.91 4.91 4.76 2.35-2.43-4.91-4.76 4.76-4.91L12.02 0 7.26 4.91 2.35.15z"></path>
  </symbol>
  <symbol xmlns="http://www.w3.org/2000/svg" viewBox="0 0 512 512" id="deliver">
    <path d="M459.943 314.321V127.83L238.534 0 17.126 127.83v255.66l221.408 127.83 58.9-34.006C318.354 498.701 347.512 512 379.721 512c63.495 0 115.153-51.658 115.153-115.153 0-32.333-13.4-61.59-34.931-82.526zM238.534 34.686l176.349 101.815-73.154 42.236L165.38 76.922l73.154-42.236zm-15.02 433.275L47.166 366.146V162.517l176.348 101.815v203.629zM62.186 136.501l73.154-42.236L311.689 196.08l-73.155 42.236L62.186 136.501zm191.368 331.46v-203.63l176.348-101.815v130.701c-15.176-7.379-32.203-11.522-50.181-11.522-63.495 0-115.153 51.658-115.153 115.153 0 20.421 5.35 39.614 14.712 56.261l-25.726 14.852zm126.167 13.999c-46.931 0-85.113-38.182-85.113-85.113s38.182-85.113 85.113-85.113 85.113 38.182 85.113 85.113-38.181 85.113-85.113 85.113z"></path>
    <path d="M415.287 353.212l-49.183 49.455-22.031-21.808-21.133 21.348 43.33 42.893 70.317-70.706z"></path>
  </symbol>
  <symbol viewBox="0 0 512 512" xmlns="http://www.w3.org/2000/svg" id="enter">
    <path d="M218.668 240H16c-8.832 0-16-7.168-16-16s7.168-16 16-16h202.668c8.832 0 16 7.168 16 16s-7.168 16-16 16zm0 0"></path>
    <path d="M138.668 320a15.89 15.89 0 0 1-11.309-4.691c-6.25-6.254-6.25-16.387 0-22.637l68.696-68.692-68.696-68.671c-6.25-6.254-6.25-16.387 0-22.637s16.383-6.25 22.637 0l80 80c6.25 6.25 6.25 16.383 0 22.637l-80 80A15.975 15.975 0 0 1 138.668 320zm202.664 192c-23.531 0-42.664-19.137-42.664-42.668v-384c0-18.238 11.605-34.516 28.883-40.512L455.723 2.09C484.395-6.7 512 14.57 512 42.668v384c0 18.219-11.605 34.473-28.863 40.488L354.922 509.91c-4.672 1.45-9 2.09-13.59 2.09zm128-480c-1.387 0-2.559.172-3.816.555L337.879 75.113c-4.184 1.453-7.211 5.676-7.211 10.219v384c0 7.277 7.89 12.184 14.484 10.113l127.637-42.558c4.16-1.453 7.211-5.676 7.211-10.219v-384C480 36.801 475.223 32 469.332 32zm0 0"></path>
    <path d="M186.668 106.668c-8.832 0-16-7.168-16-16v-32c0-32.363 26.3-58.668 58.664-58.668h240c8.832 0 16 7.168 16 16s-7.168 16-16 16h-240c-14.7 0-26.664 11.969-26.664 26.668v32c0 8.832-7.168 16-16 16zm128 341.332h-85.336c-32.363 0-58.664-26.305-58.664-58.668v-32c0-8.832 7.168-16 16-16s16 7.168 16 16v32c0 14.7 11.965 26.668 26.664 26.668h85.336c8.832 0 16 7.168 16 16s-7.168 16-16 16zm0 0"></path>
  </symbol>
  <symbol xmlns="http://www.w3.org/2000/svg" viewBox="0 0 512 512" id="search">
    <path d="M495 466.2L377.2 348.4c29.2-35.6 46.8-81.2 46.8-130.9C424 103.5 331.5 11 217.5 11 103.4 11 11 103.5 11 217.5S103.4 424 217.5 424c49.7 0 95.2-17.5 130.8-46.7L466.1 495c8 8 20.9 8 28.9 0 8-7.9 8-20.9 0-28.8zm-277.5-83.3C126.2 382.9 52 308.7 52 217.5S126.2 52 217.5 52C308.7 52 383 126.3 383 217.5s-74.3 165.4-165.5 165.4z"></path>
  </symbol>
  <symbol xmlns="http://www.w3.org/2000/svg" viewBox="0 0 24 24" id="shopping-cart">
    <path d="M21.08 7a2 2 0 0 0-1.7-1H6.58L6 3.74A1 1 0 0 0 5 3H3a1 1 0 0 0 0 2h1.24L7 15.26A1 1 0 0 0 8 16h9a1 1 0 0 0 .89-.55l3.28-6.56A2 2 0 0 0 21.08 7zm-4.7 7H8.76L7.13 8h12.25z"></path>
    <circle cx="7.5" cy="19.5" r="1.5"></circle>
    <circle cx="17.5" cy="19.5" r="1.5"></circle>
  </symbol>
  <symbol xmlns="http://www.w3.org/2000/svg" viewBox="0 0 75.29 75.29" id="x">
    <title>x</title>
    <path d="M4.95 4.95l65.39 65.39m0-65.39L4.95 70.34" fill="none" stroke="#fff" stroke-miterlimit="10" stroke-width="14"></path>
  </symbol>
  <symbol xmlns="http://www.w3.org/2000/svg" viewBox="0 0 12.56 19.47" id="arrow-right">
    <title>arrow-right</title>
    <path fill="none" stroke="#fff" stroke-linecap="round" stroke-miterlimit="10" stroke-width="4" d="M10.56 17.46L2.83 9.73 10.56 2"></path>
  </symbol>
  <symbol viewBox="0 0 496 496" xmlns="http://www.w3.org/2000/svg" id="credit-card">
    <path d="M432 64H64C28.71 64 0 92.71 0 128v240c0 35.29 28.71 64 64 64h368c35.29 0 64-28.71 64-64V128c0-35.29-28.71-64-64-64zM64 96h368c17.645 0 32 14.355 32 32H32c0-17.645 14.355-32 32-32zm-32 64h432v40H32zm400 240H64c-17.645 0-32-14.355-32-32V232h432v136c0 17.645-14.355 32-32 32zM128 264h-16c-22.056 0-40 17.944-40 40v16c0 22.056 17.944 40 40 40h16c22.056 0 40-17.944 40-40v-16c0-22.056-17.944-40-40-40zm8 56c0 4.411-3.589 8-8 8h-16c-4.411 0-8-3.589-8-8v-16c0-4.411 3.589-8 8-8h16c4.411 0 8 3.589 8 8zm288-40c0 8.837-7.163 16-16 16H264c-8.837 0-16-7.163-16-16s7.163-16 16-16h144c8.837 0 16 7.163 16 16zm-72 64c0 8.837-7.163 16-16 16h-72c-8.837 0-16-7.163-16-16s7.163-16 16-16h72c8.837 0 16 7.163 16 16z"></path>
  </symbol>
  <symbol xmlns="http://www.w3.org/2000/svg" viewBox="0 0 24 24" id="slider-arrow">
    <path d="M13.83 19a1 1 0 0 1-.78-.37l-4.83-6a1 1 0 0 1 0-1.27l5-6a1 1 0 0 1 1.54 1.28L10.29 12l4.32 5.36a1 1 0 0 1-.78 1.64z"></path>
  </symbol>
</svg>