<svg id="Layer_1" data-name="Layer 1" xmlns="http://www.w3.org/2000/svg" viewBox="0 0 1691.87 1757.67">
  <title>lines-bg</title>
  <g id="Isolation_Mode" data-name="Isolation Mode">
    <g>
      <path d="M429,1264c-46.19,40.15-139.62,57.51-231.4,53.28s-182.2-30-222.42-76.3c-80.3-92.37-65.12-219.25,27.33-299.62,46.19-40.15,194.54-75.43,322.54-79.24s235.71,23.93,200.58,109.72C465,1120.21,521.46,1183.63,429,1264Z" transform="translate(610.79 385.51)" fill="none" stroke="#5e638a" stroke-miterlimit="10" stroke-opacity="0" stroke-width="0.5"/>
      <path d="M587.28,1015.78c17.81-53.91-11.49-92.18-75.54-105.66-40-8.46-87.73-11.59-137.31-12.08-24.44-.22-48.82-.22-72.56.67-95.64,3.38-187.06,14.21-236.11,36.44a117.62,117.62,0,0,0-19.68,10.74c-96.62,69-122.75,191.38-56.23,267.91,38.32,44.07,124.56,68.75,212.24,72.82" transform="translate(610.79 385.51)" fill="none" stroke="#5e638a" stroke-miterlimit="10" stroke-width="0.57" opacity="0.05" style="isolation: isolate"/>
      <path d="M597.93,1001.35c13.72-54.33-11.29-100-80.25-112.29-43.9-7.82-94.2-11.26-144.94-13.54-26.07-1.18-51.33-2.81-75.51-3.65-97.74-3.29-187.82-5.4-238.13,11.56-7.69,2.58-14.82,5.2-20.58,8.49-100,57.65-137.81,175.44-85,236.19,36.54,42,118.68,65.5,202.2,69.36" transform="translate(610.79 385.51)" fill="none" stroke="#5e638a" stroke-miterlimit="10" stroke-width="0.64" opacity="0.09" style="isolation: isolate"/>
      <path d="M609.38,987.69c9.71-54.82-11.18-107.81-84.9-118.85-48-7.18-100.6-11-152.48-15.06-27.57-2.14-53.85-5.4-78.42-7.89C193.64,835.78,105,821,53.38,832.49c-7.86,1.79-15.27,3.47-21.43,6.3C-70.82,885.33-120.91,998.44-81.87,1043.34c34.71,39.93,112.75,62.18,192,65.88" transform="translate(610.79 385.51)" fill="none" stroke="#5e638a" stroke-miterlimit="10" stroke-width="0.7" opacity="0.14" style="isolation: isolate"/>
      <path d="M621.54,975c5.57-55.32-11.13-115.53-89.55-125.41-51.93-6.54-107.06-10.82-160.1-16.51-29.27-3.19-56.44-7.92-81.39-12.08-102.08-17-189.13-44.41-242.15-38.33-8.07.92-15.71,1.73-22.32,4C-78.83,822.47-141.89,930.55-116.63,959.61c32.87,37.81,106.74,58.92,182,62.41" transform="translate(610.79 385.51)" fill="none" stroke="#5e638a" stroke-miterlimit="10" stroke-width="0.77" opacity="0.18" style="isolation: isolate"/>
      <path d="M634.8,963.74c1.56-55.82-11-123.33-94.26-132.06-56-5.9-113.52-10.63-167.65-18-30.9-4.14-59-10.57-84.27-16.31C184.31,773.53,98.86,733.46,44.45,734.12c-8.16.07-16.1.08-23.16,1.71-106.4,25.45-183,127.91-171.42,141.2,31,35.69,100.88,55.67,171.82,58.93" transform="translate(610.79 385.51)" fill="none" stroke="#5e638a" stroke-miterlimit="10" stroke-width="0.84" opacity="0.23" style="isolation: isolate"/>
      <path d="M650.76,955.43c-2.52-56.25-10.9-131-98.9-138.62-60-5.19-120-10.59-175.28-19.49-32.52-5.25-61.53-13.16-87.16-20.55C183,746.08,99.1,693.5,43.23,688.67c-8.31-.72-16.4-1.64-24.06-.55-107.64,15.8-198,112.11-200.25,109.55,29.19,33.58,94.94,52.36,161.77,55.47" transform="translate(610.79 385.51)" fill="none" stroke="#5e638a" stroke-miterlimit="10" stroke-width="0.91" opacity="0.27" style="isolation: isolate"/>
      <path d="M674.32,956c-6.58-56.81-10.79-138.62-103.61-145.25-64-4.48-126.36-10.47-182.76-20.93-34.14-6.36-64.1-15.83-90.12-24.88C189.17,727.3,106.88,662.36,49.56,651.9c-8.4-1.58-16.78-3.3-25-2.81C-84,655.67-188.48,745.41-204.49,727c27.42,31.55,88.93,49.1,151.6,52" transform="translate(610.79 385.51)" fill="none" stroke="#5e638a" stroke-miterlimit="10" stroke-width="0.98" opacity="0.32" style="isolation: isolate"/>
      <path d="M697.82,956.52c-10.67-57.24-10.75-146.34-108.25-151.82-68.07-3.76-132.74-10.48-190.39-22.38-35.7-7.39-66.62-18.41-93.09-29.05-110.86-44.61-191.51-122-250.29-137.94-8.49-2.29-17.16-5-25.87-5.07-109.51-2-228.2,80.45-257.92,46.26,25.59,29.43,83.06,45.86,141.56,48.53" transform="translate(610.79 385.51)" fill="none" stroke="#5e638a" stroke-miterlimit="10" stroke-width="1.05" opacity="0.36" style="isolation: isolate"/>
      <path d="M721.31,957.17c-14.68-57.73-10.64-154-113-158.31-72.08-3.06-139.18-10.59-198-23.84-37.33-8.5-69.19-21.08-96-33.3C201.27,690.15,122.27,600.49,62,578.91c-8.65-3.08-17.56-6.47-26.64-7.32-110.5-10.21-243.26,64.65-286.75,14.61,23.75,27.32,77.12,42.54,131.38,45" transform="translate(610.79 385.51)" fill="none" stroke="#5e638a" stroke-miterlimit="10" stroke-width="1.11" opacity="0.41" style="isolation: isolate"/>
      <path d="M744.87,957.76c-18.75-58.16-10.53-161.65-117.68-165-76.11-2.34-145.64-10.54-205.56-25.36-39-9.6-71.64-23.72-98.88-37.53C207.55,671.31,130,569.49,68.43,542.22c-8.8-3.88-17.87-8.06-27.54-9.59-111.58-18.15-258.24,48.79-315.58-17.17,21.91,25.2,71.26,39.29,121.35,41.59" transform="translate(610.79 385.51)" fill="none" stroke="#5e638a" stroke-miterlimit="10" stroke-width="1.18" opacity="0.45" style="isolation: isolate"/>
      <path d="M768.3,958.33C745.53,899.68,757.88,789,646,786.82c-80.13-1.64-152-10.56-213.19-26.82-40.64-10.78-74.21-26.38-101.77-41.78C213.68,652.6,137.65,538.62,74.61,505.58c-9-4.67-18.26-9.57-28.45-11.85C-66.59,468-227.12,526.58-298.18,444.85c20.08,23.09,65.25,36,111.18,38.11" transform="translate(610.79 385.51)" fill="none" stroke="#5e638a" stroke-miterlimit="10" stroke-width="1.25" opacity="0.5" style="isolation: isolate"/>
      <path d="M791.78,959c-26.91-59.16-10.32-176.8-127-178.15-84.14-.92-158.38-10.72-220.73-28.34a420.87,420.87,0,0,1-104.81-46c-119.46-72.64-194-198.78-258.34-237.59-9.12-5.46-18.66-10.95-29.35-14.1-114.29-33.16-288.42,17.11-373.25-80.47,18.24,21,59.31,32.71,101.06,34.71" transform="translate(610.79 385.51)" fill="none" stroke="#5e638a" stroke-miterlimit="10" stroke-width="1.32" opacity="0.55" style="isolation: isolate"/>
      <path d="M815.28,959.49c-30.92-59.65-10.21-184.44-131.68-184.72C595.43,774.56,518.77,764,455.24,745a408.11,408.11,0,0,1-107.7-50.27C226,615,152.82,476.81,87.18,432.24,77.9,426,68.13,419.78,57,415.81c-116-40.43-303.48,1.32-402.08-112.11,16.4,18.87,53.44,29.46,91,31.17" transform="translate(610.79 385.51)" fill="none" stroke="#5e638a" stroke-miterlimit="10" stroke-width="1.39" opacity="0.59" style="isolation: isolate"/>
      <path d="M838.77,960.14c-35-60.08-10.1-192.09-136.33-191.28-92.19.64-171.13-10.9-235.91-31.31A399,399,0,0,1,355.94,683C232.29,596.27,160.51,445.87,93.56,395.68c-9.43-7-19.51-13.91-31.09-18.69C-55.25,329.21-256,362.38-368.36,233.17c14.63,16.83,47.43,26.21,80.85,27.77" transform="translate(610.79 385.51)" fill="none" stroke="#5e638a" stroke-miterlimit="10" stroke-width="1.45" opacity="0.64" style="isolation: isolate"/>
      <path d="M862.26,960.79c-39-60.57-10.07-199.67-141.12-197.85-96.21,1.35-177.57-11-243.47-32.69a392.56,392.56,0,0,1-113.48-58.76C238.48,577.64,168,415.21,99.79,359.26c-9.52-7.75-20-15.36-31.92-20.87C-51.91,283.37-265.71,308-391.8,162.92c12.79,14.71,41.49,22.89,70.74,24.22" transform="translate(610.79 385.51)" fill="none" stroke="#5e638a" stroke-miterlimit="10" stroke-width="1.52" opacity="0.68" style="isolation: isolate"/>
      <path d="M885.68,961.36C842.53,900.29,875.79,754.12,739.92,757,639.69,759,556,745.87,488.9,722.74c-48.52-16.65-86.9-39.6-116.52-63C244.62,558.79,175.45,384.26,105.91,322.55c-9.69-8.55-20.45-16.82-32.84-23.14C-48.81,237.09-275.56,253.2-415.43,92.3c10.95,12.6,35.63,19.64,60.64,20.82" transform="translate(610.79 385.51)" fill="none" stroke="#5e638a" stroke-miterlimit="10" stroke-width="1.59" opacity="0.73" style="isolation: isolate"/>
      <path d="M909.17,962C862,900.45,899.38,747.12,758.7,751c-104.26,2.78-190.25-11.24-258.64-35.66C449.92,697.4,410.65,673,380.64,648,250.82,540,182.93,353.38,112.15,286a166.83,166.83,0,0,0-33.74-25.4C-45.8,191-285.2,198.51-438.85,21.76c9.12,10.49,29.69,16.32,50.53,17.28" transform="translate(610.79 385.51)" fill="none" stroke="#5e638a" stroke-miterlimit="10" stroke-width="1.66" opacity="0.77" style="isolation: isolate"/>
      <path d="M932.59,962.59c-51.24-62-9.68-222.4-155.12-217.61-108.28,3.62-196.61-11.41-266.19-37.19-51.68-19.07-91.91-44.92-122.3-71.5C257.1,521.17,190.54,322.51,118.47,249.35a175.88,175.88,0,0,0-34.65-27.66C-42.86,144.86-294.91,143.75-462.27-48.78c7.28,8.38,23.74,13.15,40.42,13.89" transform="translate(610.79 385.51)" fill="none" stroke="#5e638a" stroke-miterlimit="10" stroke-width="1.73" opacity="0.82" style="isolation: isolate"/>
      <path d="M956.08,963.24c-55.25-62.48-9.6-229.77-159.76-224.18-112.25,4.56-202.92-11.49-273.82-38.64-53.22-20.38-94.41-47.64-125.2-75.74C263.45,502.41,197.94,291.7,124.85,212.8a186.93,186.93,0,0,0-35.47-30C-39.91,98.71-304.42,89.07-485.55-119.3c5.51,6.34,17.81,9.82,30.39,10.41" transform="translate(610.79 385.51)" fill="none" stroke="#5e638a" stroke-miterlimit="10" stroke-width="1.8" opacity="0.86" style="isolation: isolate"/>
      <path d="M979.49,964C920.1,901,970,726.54,815,733.14c-116.26,5.27-209.28-11.66-281.44-40.09-54.77-21.56-96.85-50.3-128.17-79.92C269.73,483.56,205.27,261,130.88,176.29A197.26,197.26,0,0,0,94.5,144c-132-91.45-408.84-109.68-603.69-333.82,3.67,4.22,11.88,6.5,20.21,6.94" transform="translate(610.79 385.51)" fill="none" stroke="#5e638a" stroke-miterlimit="10" stroke-width="1.86" opacity="0.91" style="isolation: isolate"/>
      <path d="M1002.91,964.53c-63.4-63.48-9.37-245.06-169.11-237.38-120.29,6-215.58-11.88-289-41.61-56.31-22.87-99.43-53-131.13-84.24C275.93,464.79,212.68,230,137.13,139.58A213.3,213.3,0,0,0,100,105.09C-34.73,6.35-323.92-20.25-532.61-260.32c1.84,2.11,5.93,3.32,10.18,3.47" transform="translate(610.79 385.51)" fill="none" stroke="#5e638a" stroke-miterlimit="10" stroke-width="1.93" opacity="0.95" style="isolation: isolate"/>
      <path d="M1026.4,965.18c-67.48-63.91-9.27-252.71-173.76-243.94C632,733.1,495.42,665,422,589.69,282.13,446.16,220.29,199.13,143.44,103.09,33-35-309.88-47.69-556-330.86" transform="translate(610.79 385.51)" fill="none" stroke="#5e638a" stroke-miterlimit="10" stroke-width="2"/>
    </g>
  </g>
  <g>
    <line x1="54" x2="54" y2="36" fill="none" stroke="#000" stroke-width="0.3"/>
    <line y1="54" x2="36" y2="54" fill="none" stroke="#000" stroke-width="0.3"/>
    <line y1="1703.67" x2="36" y2="1703.67" fill="none" stroke="#000" stroke-width="0.3"/>
    <line x1="54" y1="1757.67" x2="54" y2="1721.67" fill="none" stroke="#000" stroke-width="0.3"/>
    <line x1="1637.87" x2="1637.87" y2="36" fill="none" stroke="#000" stroke-width="0.3"/>
    <line x1="1691.87" y1="54" x2="1655.87" y2="54" fill="none" stroke="#000" stroke-width="0.3"/>
    <line x1="1691.87" y1="1703.67" x2="1655.87" y2="1703.67" fill="none" stroke="#000" stroke-width="0.3"/>
    <line x1="1637.87" y1="1757.67" x2="1637.87" y2="1721.67" fill="none" stroke="#000" stroke-width="0.3"/>
  </g>
</svg>
