<svg xmlns="http://www.w3.org/2000/svg" viewBox="0 0 21.17 18.63">
  <title>triangle</title>
  <g id="Layer_2" data-name="Layer 2">
    <g id="BACKGROUND">
      <path d="M0,18.63,7.8,0,21.17,15.13ZM8.83,6.28l-3.35,8,9.1-1.51Z" fill="#f0f"/>
    </g>
  </g>
</svg>
